module ApiDashboard

go 1.17

require (
	github.com/labstack/echo/v4 v4.7.2
	github.com/labstack/gommon v0.3.1 // indirect
	github.com/mattn/go-colorable v0.1.11 // indirect
	github.com/mattn/go-isatty v0.0.14 // indirect
	github.com/tkanos/gonfig v0.0.0-20210106201359-53e13348de2f
	github.com/valyala/bytebufferpool v1.0.0 // indirect
	github.com/valyala/fasttemplate v1.2.1 // indirect
	golang.org/x/crypto v0.0.0-20220411220226-7b82a4e95df4 // indirect
	golang.org/x/net v0.0.0-20220425223048-2871e0cb64e4 // indirect
	golang.org/x/sys v0.0.0-20220422013727-9388b58f7150 // indirect
	golang.org/x/text v0.3.7 // indirect
)

require (
	github.com/ghodss/yaml v1.0.0 // indirect
	github.com/jinzhu/gorm v1.9.16
	gopkg.in/yaml.v2 v2.4.0 // indirect
)

require (
	github.com/KyleBanks/depth v1.2.1 // indirect
	github.com/PuerkitoBio/purell v1.1.1 // indirect
	github.com/PuerkitoBio/urlesc v0.0.0-20170810143723-de5bf2ad4578 // indirect
	github.com/go-openapi/jsonpointer v0.19.5 // indirect
	github.com/go-openapi/jsonreference v0.19.6 // indirect
	github.com/go-openapi/spec v0.20.4 // indirect
	github.com/go-openapi/swag v0.19.15 // indirect
	github.com/jinzhu/inflection v1.0.0 // indirect
	github.com/josharian/intern v1.0.0 // indirect
	github.com/lib/pq v1.1.1 // indirect
	github.com/mailru/easyjson v0.7.7 // indirect
	github.com/swaggo/echo-swagger v1.3.2
	github.com/swaggo/swag v1.8.2
	golang.org/x/tools v0.1.10 // indirect
)

require github.com/joho/godotenv v1.4.0

require github.com/swaggo/files v0.0.0-20210815190702-a29dd2bc99b2 // indirect
